oslabb24@os-node1:~/fconc$ strace ./q1 T1 T2 
execve("./q1", ["./q1", "T1", "T2"], [/* 27 vars */]) = 0
brk(0)                                  = 0x10d5000
access("/etc/ld.so.nohwcap", F_OK)      = -1 ENOENT (No such file or directory)
mmap(NULL, 8192, PROT_READ|PROT_WRITE, MAP_PRIVATE|MAP_ANONYMOUS, -1, 0) = 0x7f769ed41000
access("/etc/ld.so.preload", R_OK)      = -1 ENOENT (No such file or directory)
open("/etc/ld.so.cache", O_RDONLY|O_CLOEXEC) = 3
fstat(3, {st_mode=S_IFREG|0644, st_size=30952, ...}) = 0
mmap(NULL, 30952, PROT_READ, MAP_PRIVATE, 3, 0) = 0x7f769ed39000
close(3)                                = 0
access("/etc/ld.so.nohwcap", F_OK)      = -1 ENOENT (No such file or directory)
open("/lib/x86_64-linux-gnu/libc.so.6", O_RDONLY|O_CLOEXEC) = 3
read(3, "\177ELF\2\1\1\3\0\0\0\0\0\0\0\0\3\0>\0\1\0\0\0P\34\2\0\0\0\0\0"..., 832) = 832
fstat(3, {st_mode=S_IFREG|0755, st_size=1738176, ...}) = 0
mmap(NULL, 3844640, PROT_READ|PROT_EXEC, MAP_PRIVATE|MAP_DENYWRITE, 3, 0) = 0x7f769e778000
mprotect(0x7f769e919000, 2097152, PROT_NONE) = 0
mmap(0x7f769eb19000, 24576, PROT_READ|PROT_WRITE, MAP_PRIVATE|MAP_FIXED|MAP_DENYWRITE, 3, 0x1a1000) = 0x7f769eb19000
mmap(0x7f769eb1f000, 14880, PROT_READ|PROT_WRITE, MAP_PRIVATE|MAP_FIXED|MAP_ANONYMOUS, -1, 0) = 0x7f769eb1f000
close(3)                                = 0
mmap(NULL, 4096, PROT_READ|PROT_WRITE, MAP_PRIVATE|MAP_ANONYMOUS, -1, 0) = 0x7f769ed38000
mmap(NULL, 4096, PROT_READ|PROT_WRITE, MAP_PRIVATE|MAP_ANONYMOUS, -1, 0) = 0x7f769ed37000
mmap(NULL, 4096, PROT_READ|PROT_WRITE, MAP_PRIVATE|MAP_ANONYMOUS, -1, 0) = 0x7f769ed36000
arch_prctl(ARCH_SET_FS, 0x7f769ed37700) = 0
mprotect(0x7f769eb19000, 16384, PROT_READ) = 0
mprotect(0x7f769ed43000, 4096, PROT_READ) = 0
munmap(0x7f769ed39000, 30952)           = 0
open("T1", O_RDONLY)                    = 3
open("T2", O_RDONLY)                    = 4
open("fconc.out", O_WRONLY|O_CREAT|O_APPEND, 0666) = 5
read(3, "I am going to \n", 1024)       = 15
write(5, "I am going to \n", 15)        = 15
read(3, "", 1024)                       = 0
read(4, "live forever !!! \n", 1024)    = 18
write(5, "live forever !!! \n", 18)     = 18
read(4, "", 1024)                       = 0
close(3)                                = 0
close(4)                                = 0
close(5)                                = 0
exit_group(0)                           = ?
+++ exited with 0 +++

